0000 2800            mov r0,#200
     00C8
0002 2900            mov r1,#2
     0002
0004 5004 @while     cmp r0,r1
0005 6800            beq fin
     000F
0007 7800            blt inferieur
     000C
0009 4004            sub r0,r0,r1
000A 8800            b while
     0004
000C 4120 @inferieur sub r1,r1,r0
000D 8800            b while
     0004
000F 8800 @fin       b fin
     000F
